module gitlab.com/meriororen/ocpp-go

go 1.12

require (
	github.com/Shopify/toxiproxy v2.1.4+incompatible
	github.com/go-playground/locales v0.12.1 // indirect
	github.com/go-playground/universal-translator v0.16.0 // indirect
	github.com/gorilla/mux v1.7.3
	github.com/gorilla/websocket v1.4.1
	github.com/kr/pretty v0.1.0 // indirect
	github.com/leodido/go-urn v1.1.0 // indirect
	github.com/lorenzodonini/ocpp-go v0.13.0
	github.com/pkg/errors v0.8.1
	github.com/sirupsen/logrus v1.4.2
	github.com/stretchr/testify v1.4.0
	gopkg.in/check.v1 v1.0.0-20190902080502-41f04d3bba15 // indirect
	gopkg.in/go-playground/assert.v1 v1.2.1 // indirect
	gopkg.in/go-playground/validator.v9 v9.30.0
)
